<?xml version="1.0" encoding="utf-8"?>
<!-- Generator: Adobe Illustrator 16.0.3, SVG Export Plug-In . SVG Version: 6.00 Build 0)  -->
<!DOCTYPE svg PUBLIC "-//W3C//DTD SVG 1.1//EN" "http://www.w3.org/Graphics/SVG/1.1/DTD/svg11.dtd">
<svg version="1.1" id="Layer_1" xmlns="http://www.w3.org/2000/svg" xmlns:xlink="http://www.w3.org/1999/xlink" x="0px" y="0px"
	 width="500px" height="500px" viewBox="0 0 500 500" enable-background="new 0 0 500 500" xml:space="preserve">
<g>
	<path fill-rule="evenodd" clip-rule="evenodd" d="M90.303,414.239c0-31.667,0-61.863,0-93.076c30.602,0,60.082,0,90.873,0
		c0-31.478,0-61.965,0-93.56c31.189,0,61.073,0,92.028,0c0-30.988,0-60.866,0-91.751c30.609,0,60.153,0,91.192,0
		c0-30.745,0-60.51,0-90.852c46.024,0,90.546,0,135.872,0c0,15.063,0,30.149,0,46.48c-29.521,0-58.646,0-89.132,0
		c0,31.013,0,60.822,0,91.494c-30.93,0-60.491,0-91.199,0c0,31.029,0,61.201,0,92.48c-31.026,0-60.912,0-91.756,0
		c0,30.969,0,60.849,0,92.334c-30.974,0-61.033,0-92.101,0c0,31.798,0,62.004,0,92.806c-45.863,0-90.682,0-136.081,0
		c0-15.126,0-29.99,0-46.354C29.692,414.239,59.441,414.239,90.303,414.239z"/>
</g>
</svg>
