<?xml version="1.0" standalone="no"?>
<!DOCTYPE svg PUBLIC "-//W3C//DTD SVG 1.1//EN" "http://www.w3.org/Graphics/SVG/1.1/DTD/svg11.dtd" >
<svg xmlns="http://www.w3.org/2000/svg">
<metadata>Generated by IcoMoon</metadata>
<defs>
<font id="workout_challenge" horiz-adv-x="1024">
<font-face units-per-em="1024" ascent="960" descent="-64" />
<missing-glyph horiz-adv-x="1024" />
<glyph unicode="&#x20;" d="" horiz-adv-x="512" />
<glyph unicode="&#xe600;" d="M0 448c0-282.77 229.23-512 512-512 282.772 0 512 229.23 512 512s-229.228 512-512 512c-282.77 0-512-229.23-512-512zM896 448c0-73.236-20.512-141.68-56.088-199.912l-527.822 527.824c58.23 35.578 126.674 56.088 199.91 56.088 212.076 0 384-171.922 384-384zM128 448c0 73.236 20.512 141.678 56.090 199.912l527.822-527.824c-58.234-35.578-126.676-56.088-199.912-56.088-212.076 0-384 171.922-384 384z" />
<glyph unicode="&#xe601;" d="M318.188 402.708h-2.084l-67.042 102.376-81.876 120.874h-63.5v-352.79h70.124v222.208h3.042l58.208-89.084 89.376-133.124h63.876v352.79h-70.124v-223.25zM412.938 251.668h51.668l129.582 392.664h-52.25l-129-392.664zM797.438 625.958h-71.666l-123.958-352.79h74.75l23.042 72.75h122.918l21.498-72.75h76.292l-122.876 352.79zM718.562 404.75l14.292 46.584 27.208 91.664h2l27.708-93.208 13.792-45.042h-85z" />
<glyph unicode="&#xe602;" d="M913.176 224.678h98.824l-146.36 223.39h-61.186l108.722-221.686v-1.704zM796.686 224.678l-62.992 223.388h-265.102l-7.512-76.706c-13.792-124.916-129.878-143.784-205.946-146.606l-35.982-0.078c-93.89 0-170.016 76.13-170.016 170.016 0 93.894 76.126 170.020 170.016 170.020 93.898 0 170.008-76.126 170.008-170.020 0-93.904-76.098-98.924-170.008-98.924v-0.086c-54.666 0-99.010 44.354-99.010 99.010 0 54.662 44.344 99.012 99.010 99.012 51.848 0 94.428-39.918 98.676-90.676 0.368-4.588-3.406-8.336-8.014-8.336h-18.854c-4.61 0-8.276 3.75-8.864 8.336-4.092 31.106-30.714 55.126-62.942 55.126-35.040 0-63.452-28.416-63.452-63.462 0-35.012 28.35-63.414 63.452-63.448v0.072c74.242 0 134.488-10.862 134.488 63.378 0 74.256-60.224 134.472-134.488 134.472-74.25 0-134.48-60.216-134.48-134.472 0-74.254 60.23-134.47 134.48-134.47 9.714 0 19.18 0.226 28.512 0.566l4.474 0.084-0.014 0.096c98.712 4.304 174.18 31.18 174.18 134.328 0 114.402-92.75 207.148-207.152 207.148-1.87 0-3.688-0.224-5.544-0.276-0.176 0.064-0.446 0.18-0.446 0.18 57.768 5.718 184.728-9.654 217.7-170.656l11.654 119.144 0.056 0.52-0.028 0.020c0.454 4.606 0.708 9.292 0.708 14.022 0 78.656-63.778 142.444-142.452 142.444-38.692 0-73.732-15.494-99.384-40.52l-0.084 0.028-126.84-123.804 0.098-0.052c-38.576-37.608-62.592-90.064-62.592-148.196 0-114.398 92.75-207.148 207.152-207.148h577.832v30.802c-156.258 4.55-327.904 5.724-327.904 5.724h327.606zM913.176 188.152h98.824v19.63c-23.966 2.68-58.56 4.948-98.824 6.872v-26.502zM905.77 224.678l-109.586 223.39h-54.794l62.978-223.39h101.402zM804.368 188.152h101.402v26.844c-31.372 1.444-65.91 2.676-101.402 3.738v-30.582z" />
<glyph unicode="&#xe603;" d="M807.54 605.878v196.154c0 80.398-65.43 145.968-145.962 145.968h-299.242c-80.534 0-145.964-65.572-145.964-145.968v-196.252c-62.018-69.812-99.706-161.72-99.706-262.444 0-218.34 176.996-395.336 395.334-395.336s395.334 176.996 395.334 395.334c0 100.772-37.724 192.72-99.794 262.544zM278.048 547.436c-41.384-41.374-81.532-68.338-89.638-60.222-5.732 5.734 6.022 27.398 27.962 54.19v-14.77c0-1.096 0.238-2.062 0.846-2.668 5.23-5.23 30.892 12.034 57.422 38.564 25.304 25.294 42.208 49.87 39.040 56.554v11.37c12.274 7.304 21.228 10.028 24.61 6.642 8.118-8.128-18.846-48.264-60.242-89.66zM313.682 685.39v116.642c0 26.768 21.766 48.654 48.654 48.654h299.242c26.876 0 48.654-21.886 48.654-48.654v-116.59c-58.278 33.844-125.986 53.238-198.232 53.238-72.28-0.002-140.020-19.414-198.318-53.29zM745.844 547.436c-41.386 41.396-68.348 81.532-60.222 89.66 3.382 3.386 12.336 0.66 24.61-6.648v-11.496c-2.8-6.922 13.866-31.25 39.042-56.424 26.53-26.53 52.192-43.794 57.422-38.564 0.608 0.608 0.846 1.454 0.846 2.55v14.878c21.936-26.786 33.692-48.446 27.952-54.178-8.118-8.116-48.256 18.848-89.65 60.222z" />
<glyph unicode="&#xe604;" d="M184.941 111.639c0 64.854 0 126.695 0 190.62 62.673 0 123.048 0 186.108 0 0 64.467 0 126.904 0 191.611 63.875 0 125.078 0 188.473 0 0 63.463 0 124.654 0 187.906 62.687 0 123.193 0 186.761 0 0 62.966 0 123.924 0 186.065 94.257 0 185.438 0 278.266 0 0-30.849 0-61.745 0-95.191-60.459 0-120.107 0-182.542 0 0-63.515 0-124.563 0-187.38-63.345 0-123.886 0-186.776 0 0-63.547 0-125.34 0-189.399-63.541 0-124.748 0-187.916 0 0-63.425 0-124.619 0-189.1-63.435 0-124.996 0-188.623 0 0-65.122 0-126.984 0-190.067-93.927 0-185.717 0-278.694 0 0 30.978 0 61.42 0 94.933 60.811 0.002 121.737 0.002 184.943 0.002z" />
<glyph unicode="&#xe605;" d="M18.725 626.596c38.494 105.466 108.347 145.574 193.516 111.104 43.139-17.455 64.811-55.249 64.795-114.471-0.012-39.606-0.571-79.010-4.1-118.68-4.87-54.708 20.132-92.772 53.465-116.128 41.398-29.018 86.237-30.935 128.85-0.563 31.873 22.716 35.502 50.043 13.060 86.979-22.407 36.889-51.149 65.106-78.438 95.019-65.802 72.137-59.165 194.333 11.588 255.914 101.194 88.084 315.159 100.647 429.351-76.859 28.83-44.81 62.849-83.804 94.063-126.009 37.421-50.62 67.092-107.635 81.277-176.867 0-7.221 0-14.447 0-21.668-3.709-18.575-8.77-36.899-10.854-55.781-5.54-50.258-30.888-78.105-64.664-86.827-57.391-14.832-110.5 0.375-154.345 56.777-26.259 33.796-34.572 74.508-33.974 121.072 0.664 51.247 4.93 102.861-22.419 148.152-33.454 55.405-99.25 73.505-142.932 36.801-17.99-15.114-22.745-30.573-10.34-56.16 22.727-46.848 47.995-91.861 76.919-131.172 59.589-81 39.498-276.427-38.228-337.42-109.111-85.633-224.676-110.354-340.914-26.116-60.717 44.001-112.994 109.955-141.371 191.799-34.451 99.381-89.096 186.913-104.296 297.775-0.004 14.44-0.004 28.885-0.004 43.332zM413.499 128.739c31.699-0.834 73.966 9.746 115.134 26.040 38.846 15.372 74.25 39.707 101.786 81.263 30.042 45.351 33.231 84.965 7.105 133.702-17.371 32.418-35.727 64.025-54.731 94.826-33.898 54.927-50.26 116.089-43.424 187.417 2.208 22.983 8.321 41.49 22.837 54.87 41.589 38.328 85.215 38.064 130.011 11.528 41.785-24.748 62.859-67.404 62.91-127.99 0.014-18.037 0.92-36.063 1.145-54.1 1.827-146.362 100.42-194.593 170.029-180.543 50.491 10.187 59.367 35.83 34.103 92.649-3.232 7.26-6.922 14.162-10.381 21.25-40.985 83.804-101.487 144.783-149.017 220.942-64.324 103.057-150.512 135.709-247.378 128.989-66.63-4.622-127.248-31.369-174.399-98.253-14.643-20.775-15.575-39.563 1.221-58.501 15.946-17.986 31.617-36.407 47.827-53.971 48.196-52.226 86.776-108.186 75.856-201.593-4.79-40.976-15.538-71.012-40.907-91.959-65.45-54.043-184.369-20.113-201.306 115.35-6.228 49.791-11.213 99.59-3.541 150.577 5.999 39.864-5.087 65.499-33.694 80.29-49.834 25.762-98.765 22.553-143.798-18.149-34.75-31.404-46.041-91.429-25.94-139.827 40.804-98.226 83.911-193.364 148.574-270.295 57.475-68.37 121.655-104.049 209.977-104.511z" />
</font></defs></svg>